Working with big data
…
# A tibble: 1 × 3
   mtry min_n .config              
  <int> <int> <chr>                
1     9     3 Preprocessor1_Model09

Code

rf_res |> 
  collect_predictions()

# A tibble: 187,500 × 8
   .pred_children .pred_none id          .row  mtry min_n
            <dbl>      <dbl> <chr>      <int> <int> <int>
 1         0.118       0.882 validation     2     1    24
 2         0.224       0.776 validation     6     1    24
 3         0.0703      0.930 validation     7     1    24
 4         0.0364      0.964 validation    10     1    24
 5         0.0698      0.930 validation    12     1    24
 6         0.0531      0.947 validation    13     1    24
 7         0.0584      0.942 validation    16     1    24
 8         0.0500      0.950 validation    22     1    24
 9         0.0575      0.942 validation    27     1    24
10         0.0721      0.928 validation    35     1    24
# ℹ 187,490 more rows
# ℹ 2 more variables: children <fct>, .config <chr>
…
Key is a set of variables that define observational units over time.

Each observation should be uniquely identified by index and key.

Each observational unit should be measured at a common interval, if regularly spaced.

Regular vs irregular

The Melbourne pedestrian sensor data has a regular period. Counts are provided for every hour, at numerous locations.

options(width=55)
pedestrian 

# A tsibble: 66,037 x 5 [1h] <Australia/Melbourne>
# Key:       Sensor [4]
   Sensor    Date_Time           Date        Time Count
   <chr>     <dttm>              <date>     <int> <int>
 1 Birrarun… 2015-01-01 00:00:00 2015-01-01     0  1630
 2 Birrarun… 2015-01-01 01:00:00 2015-01-01     1   826
 3 Birrarun… 2015-01-01 02:00:00 2015-01-01     2   567
 4 Birrarun… 2015-01-01 03:00:00 2015-01-01     3   264
 5 Birrarun… 2015-01-01 04:00:00 2015-01-01     4   139
 6 Birrarun… 2015-01-01 05:00:00 2015-01-01     5    77
 7 Birrarun… 2015-01-01 06:00:00 2015-01-01     6    44
 8 Birrarun… 2015-01-01 07:00:00 2015-01-01     7    56
 9 Birrarun… 2015-01-01 08:00:00 2015-01-01     8   113
10 Birrarun… 2015-01-01 09:00:00 2015-01-01     9   166
# ℹ 66,027 more rows

In contrast, the US flights data, below, is irregular.

options(width=55)
flights_ts <- flights |>
  mutate(dt = ymd_hm(paste(paste(year, month, day, sep="-"), 
                           paste(hour, minute, sep=":")))) |>
  as_tsibble(index = dt, key = c(origin, dest, carrier, tailnum), regular = FALSE)
flights_ts 

# A tsibble: 336,776 x 20 [!] <UTC>
# Key:       origin, dest, carrier, tailnum [52,807]
    year month   day dep_time sched_dep_time dep_delay
   <int> <int> <int>    <int>          <int>     <dbl>
 1  2013     1    30     2224           2000       144
 2  2013     2    17     2012           2010         2
 3  2013     2    26     2356           2000       236
 4  2013     3    13     1958           2005        -7
 5  2013     5    16     2214           2000       134
 6  2013     5    30     2045           2000        45
 7  2013     9    11     2254           2159        55
 8  2013     9    12       NA           2159        NA
 9  2013     9     8     2156           2159        -3
10  2013     1    26     1614           1620        -6
# ℹ 336,766 more rows
# ℹ 14 more variables: arr_time <int>,
#   sched_arr_time <int>, arr_delay <dbl>,
#   carrier <chr>, flight <int>, tailnum <chr>,
#   origin <chr>, dest <chr>, air_time <dbl>,
#   distance <dbl>, hour <dbl>, minute <dbl>,
#   time_hour <dttm>, dt <dttm>
…
